<svg xmlns="http://www.w3.org/2000/svg" width="577" height="457" viewBox="0 0 577 457">
  <g fill="none" transform="translate(0 -.58)">
    <path fill="#4592D1" d="M226.4,313.7 L215.8,305.7 C215.9,305.5 228.5,289.2 253.1,240.6 C258.9,229.1 255.4,224.1 254.2,222.4 C249.1,215.1 234.5,210 213.1,208.1 C195.7,206.6 179.9,207.7 179.7,207.7 L178.7,194.6 C185.8,194.1 248.1,190.2 265.3,215 C269.4,221 272.7,231.2 265.1,246.3 C239.8,296.5 226.9,313 226.4,313.7"/>
    <path fill="#73B5EC" d="M241.1,316.1 L218.3,316.2 C216.6,316.2 215.2,314.8 215.2,313.1 L215.2,306 L241.1,305.9 C243.9,305.9 246.2,308.2 246.2,311 C246.2,313.8 244,316.1 241.1,316.1"/>
    <path fill="#F6C471" d="M373.2,319.3 C371.9,319.3 370.5,318.9 369.4,318 C366.6,315.9 366.1,312.1 368.2,309.4 C368.5,309.1 395,274.8 407.2,238 C408.9,232.9 408.4,228.9 405.8,225.3 C400.8,218.6 387.8,213.3 369.3,210.3 C354.3,207.9 341,207.9 340.8,207.9 L340.8,207.9 C337.3,207.9 334.5,205.1 334.5,201.7 C334.5,198.3 337.3,195.5 340.8,195.5 L340.8,195.5 C347,195.5 399.7,196.2 416,218 C421,224.8 422.2,233 419.2,241.8 C406.3,280.6 379.4,315.4 378.2,316.9 C376.9,318.5 375.1,319.3 373.2,319.3"/>
    <path fill="#FFDEA6" d="M397.5,321.2 L369.1,321.2 C367.4,321.2 366.1,319.9 366.1,318.2 C366.1,318.2 366.3,315.6 366.6,314.1 C366.8,312.6 367.2,311.3 367.2,311.3 L397.6,311.4 C400.3,311.4 402.5,313.6 402.5,316.3 C402.5,319 400.2,321.2 397.5,321.2"/>
    <path fill="#5A6175" d="M488.5 284.2C446.8 284.2 412.9 317.3 412.9 358 412.9 398.7 446.8 431.8 488.5 431.8 530.2 431.8 564.1 398.7 564.1 358 564.1 317.3 530.2 284.2 488.5 284.2M488.5 444.2C439.9 444.2 400.3 405.5 400.3 358 400.3 310.5 439.9 271.8 488.5 271.8 537.1 271.8 576.7 310.5 576.7 358 576.7 405.5 537.2 444.2 488.5 444.2M176.6 404.3C175.9 404.3 175.3 404.1 174.7 403.8 172.6 402.7 171.8 400.3 172.9 398.3L216.2 317.1C217.3 315.1 219.8 314.3 221.9 315.4 224 316.5 224.8 318.9 223.7 320.9L180.4 402.1C179.6 403.5 178.2 404.3 176.6 404.3"/>
    <path fill="#4B5161" d="M233 323.1L206 323.1C203.7 323.1 201.8 321.3 201.8 319 201.8 316.7 203.7 314.9 206 314.9L233 314.9C235.3 314.9 237.2 316.7 237.2 319 237.2 321.3 235.3 323.1 233 323.1M190.7 405.4L163.7 405.4C161.4 405.4 159.5 403.6 159.5 401.3 159.5 399 161.4 397.2 163.7 397.2L190.7 397.2C193 397.2 194.9 399 194.9 401.3 194.9 403.5 193 405.4 190.7 405.4"/>
    <path fill="#5A6175" d="M88.3,284.2 C46.6,284.2 12.7,317.3 12.7,358 C12.7,398.7 46.6,431.8 88.3,431.8 C130,431.8 163.9,398.7 163.9,358 C163.9,317.3 130,284.2 88.3,284.2 M88.3,444.2 C39.7,444.2 0.1,405.5 0.1,358 C0.1,310.5 39.7,271.8 88.3,271.8 C136.9,271.8 176.5,310.5 176.5,358 C176.5,405.5 136.9,444.2 88.3,444.2"/>
    <path fill="#5A6175" d="M198.3,343.5 C190.1,343.5 183.5,350 183.5,358 C183.5,366 190.1,372.5 198.3,372.5 C206.5,372.5 213.1,366 213.1,358 C213.1,350 206.5,343.5 198.3,343.5 M198.3,380.6 C185.5,380.6 175.1,370.4 175.1,357.9 C175.1,345.4 185.5,335.2 198.3,335.2 C211.1,335.2 221.5,345.4 221.5,357.9 C221.5,370.4 211.1,380.6 198.3,380.6"/>
    <path fill="#818DAB" d="M92.5,354 L342.3,354 L308.6,251.7 L213.2,254.3 C184.3,256 159.9,262.5 140.9,273.8 C125.8,282.7 113.9,294.5 105.6,309 C94.8,327.8 92.8,346.2 92.5,354 M348.1,362.2 L88.3,362.2 C86.1,362.2 84.2,360.5 84.1,358.3 C84,357.2 82.9,331.7 98.2,304.9 C107.2,289.2 120.1,276.3 136.5,266.6 C156.8,254.7 182.4,247.7 212.8,246 L212.9,246 L306,243.4 L302.3,232.3 C301.6,230.1 302.8,227.8 305,227.1 C307.2,226.4 309.6,227.6 310.3,229.8 L314.7,243.2 L440.4,239.7 C442.7,239.7 444.7,241.4 444.7,243.7 C444.8,246 442.9,247.9 440.6,247.9 L317.3,251.3 L352,356.7 C352.4,358 352.2,359.3 351.4,360.4 C350.7,361.6 349.4,362.2 348.1,362.2"/>
    <path fill="#818DAB" d="M220,362.2 C219.7,362.2 219.4,362.2 219.1,362.1 C216.8,361.6 215.4,359.4 215.9,357.2 C225.5,314.6 251.8,293.5 272.3,283.3 C294.4,272.3 314,271.3 314.8,271.3 C317.1,271.2 319.1,273 319.2,275.2 C319.3,277.5 317.5,279.4 315.2,279.5 C315,279.5 296.3,280.5 275.8,290.8 C248.6,304.5 231.2,327.4 224.1,359 C223.7,360.9 221.9,362.2 220,362.2"/>
    <polygon fill="#818DAB" points="194.3 359.3 150.9 222.7 159 220.2 202.3 356.8"/>
    <path fill="#5A6175" d="M325.5,404.3 C324.8,404.3 324.2,404.1 323.6,403.8 C321.5,402.7 320.7,400.3 321.8,398.3 L365.1,317.1 C366.2,315.1 368.7,314.3 370.8,315.4 C372.9,316.5 373.7,318.9 372.6,320.9 L329.3,402.1 C328.5,403.5 327,404.3 325.5,404.3"/>
    <path fill="#818DAB" d="M488.6,358.9 L488.2,358.9 C472.3,357.6 467.9,342.7 467.7,342.1 L436.5,236.3 C435.9,234.1 437.1,231.8 439.4,231.2 C441.6,230.6 444,231.8 444.6,234 L475.8,339.8 C475.9,340.2 478.9,349.8 488.9,350.7 C491.2,350.9 492.9,352.9 492.7,355.2 C492.6,357.3 490.7,358.9 488.6,358.9"/>
    <path fill="#4B5161" d="M178.5 226.5L136.2 226.5C132.1 226.5 128.7 223.2 128.7 219 128.7 214.8 132 211.5 136.2 211.5L178.5 211.5C182.6 211.5 186 214.8 186 219 186 223.2 182.7 226.5 178.5 226.5M447.2 235.2L401.8 235.2C399.5 235.2 397.6 233.4 397.6 231.1 397.6 228.8 399.5 227 401.8 227L447.2 227C450.5 227 453.2 224.4 453.2 221.1 453.2 217.9 450.5 215.2 447.2 215.2L401.8 215.2C399.5 215.2 397.6 213.4 397.6 211.1 397.6 208.8 399.5 207 401.8 207L447.2 207C455.2 207 461.7 213.3 461.7 221.1 461.6 228.8 455.1 235.2 447.2 235.2M302 235.2L256.6 235.2C254.3 235.2 252.4 233.4 252.4 231.1 252.4 228.8 254.3 227 256.6 227L302 227C305.3 227 308 224.4 308 221.1 308 217.9 305.3 215.2 302 215.2L256.6 215.2C254.3 215.2 252.4 213.4 252.4 211.1 252.4 208.8 254.3 207 256.6 207L302 207C310 207 316.5 213.3 316.5 221.1 316.4 228.8 310 235.2 302 235.2"/>
    <path fill="#5A6175" d="M347.1,343.5 C338.9,343.5 332.3,350 332.3,358 C332.3,366 338.9,372.5 347.1,372.5 C355.3,372.5 361.9,366 361.9,358 C361.9,350 355.3,343.5 347.1,343.5 M347.1,380.6 C334.3,380.6 323.9,370.4 323.9,357.9 C323.9,345.4 334.3,335.2 347.1,335.2 C359.9,335.2 370.3,345.4 370.3,357.9 C370.4,370.4 360,380.6 347.1,380.6"/>
    <path fill="#4B5161" d="M381.8 323.1L354.8 323.1C352.5 323.1 350.6 321.3 350.6 319 350.6 316.7 352.5 314.9 354.8 314.9L381.8 314.9C384.1 314.9 386 316.7 386 319 386 321.3 384.1 323.1 381.8 323.1M339.5 405.4L312.5 405.4C310.2 405.4 308.3 403.6 308.3 401.3 308.3 399 310.2 397.2 312.5 397.2L339.5 397.2C341.8 397.2 343.7 399 343.7 401.3 343.7 403.5 341.8 405.4 339.5 405.4"/>
    <path fill="#818DAB" d="M352.1,350.9 L343.7,350.7 C343.7,349.8 344.5,329 358,306.8 C380.6,269.7 420.5,258.9 450,256.3 L450.7,264.5 C410.6,268 381.9,283.6 365.2,311 C352.8,331.3 352.1,350.7 352.1,350.9"/>
    <path fill="#ECDFD2" d="M421.8 366.2C421.3 366.2 420.8 365.8 420.8 365.3 420.7 364.7 421.1 364.2 421.7 364.2L475.9 357.8C476.5 357.7 477 358.1 477.1 358.7 477.2 359.3 476.8 359.8 476.2 359.8L422 366.2 421.8 366.2M498.9 355.8C498.5 355.8 498.2 355.6 498 355.3 497.7 354.8 497.9 354.2 498.4 353.9L547 328.6C547.5 328.3 548.2 328.5 548.4 329 548.7 329.5 548.5 330.1 548 330.4L499.4 355.7C499.3 355.8 499.1 355.8 498.9 355.8M506.5 418.4C506.1 418.4 505.6 418.1 505.5 417.7L490 370.1C489.8 369.6 490.1 369 490.7 368.8 491.3 368.6 491.8 368.9 492 369.5L507.4 417.1C507.6 417.6 507.3 418.2 506.7 418.4 506.7 418.4 506.6 418.4 506.5 418.4"/>
    <path fill="#FED58C" d="M328.5,193.1 C339.2,201.5 350.5,209 363.6,213.6 C378.3,218.7 394.1,219.5 409.5,218.8 C416.1,218.5 416.1,208.4 409.5,208.8 C395.3,209.5 381,208.9 367.4,204.4 C355.7,200.5 345.4,193.7 335.8,186.1 C330.7,181.9 323.4,189 328.5,193.1"/>
    <path fill="#F6C471" d="M322.4,396 C320.7,396 319.1,395.4 317.8,394.1 C315.4,391.6 315.5,387.7 318,385.4 C318.3,385.1 349,355.2 346.8,298.5 C344.6,241.2 318.2,215.4 317.9,215.1 C315.4,212.7 315.4,208.8 317.8,206.4 C320.2,204 324.2,203.9 326.7,206.3 C328,207.5 357,235.8 359.4,298 C361.8,360.5 328.2,392.9 326.7,394.3 C325.5,395.4 323.9,396 322.4,396"/>
    <path fill="#FFDEA6" d="M346.8,399.7 L318.4,399.7 C316.7,399.7 315.4,398.4 315.4,396.7 L315.4,389.9 L346.8,389.9 C349.5,389.9 351.7,392.1 351.7,394.8 C351.7,397.5 349.5,399.7 346.8,399.7"/>
    <path fill="#F6914E" d="M344.9,217.7 L274,217.7 C270.3,217.7 267.2,214.7 267.2,210.9 L267.2,183 L351.6,183 L351.6,210.9 C351.7,214.6 348.6,217.7 344.9,217.7"/>
    <path fill="#FFDEA6" d="M347.6,185 L270.4,185 C266.6,185 263.1,182.8 261,179.1 L242.4,157.3 C239.8,152.8 239.7,146.9 242.2,142.3 L255.9,122.9 C258,119 261.6,116.6 265.6,116.6 L347.4,114.1 C351.2,114.1 354.7,116.3 356.8,119.9 L373.9,138.3 C376.7,143.1 376.6,149.6 373.6,154.2 L356.7,179.5 C354.6,183 351.2,185 347.6,185"/>
    <path fill="#F6C471" d="M328.8,98.5 C328.8,113.3 314.5,125.3 296.8,125.3 C279.1,125.3 264.8,113.3 264.8,98.5 C264.8,83.7 277.2,70.6 294.9,70.6 C312.5,70.6 328.8,83.7 328.8,98.5 Z"/>
    <path fill="#F3F1EC" d="M330.8,149.7 C330.8,156.3 325.3,161.6 318.5,161.6 C311.7,161.6 306.2,156.3 306.2,149.7 C306.2,143.1 311.7,137.8 318.5,137.8 C325.3,137.8 330.8,143.1 330.8,149.7"/>
    <path fill="#4B5161" d="M322.5,142.9 C318.6,142.9 315.5,145.9 315.5,149.7 C315.5,153.5 318.6,156.5 322.5,156.5 C326.4,156.5 329.5,153.5 329.5,149.7 C329.5,145.9 326.3,142.9 322.5,142.9"/>
    <path fill="#F3F1EC" d="M353.9,149.7 C353.9,156.3 348.4,161.6 341.6,161.6 C334.8,161.6 329.3,156.3 329.3,149.7 C329.3,143.1 334.8,137.8 341.6,137.8 C348.4,137.8 353.9,143.1 353.9,149.7"/>
    <path fill="#4B5161" d="M345.8 142.9C341.9 142.9 338.8 145.9 338.8 149.7 338.8 153.5 341.9 156.5 345.8 156.5 349.7 156.5 352.8 153.5 352.8 149.7 352.8 145.9 349.7 142.9 345.8 142.9M330.9 169.7C327 169.7 323.5 168.1 321.7 166.7 320.9 166.1 320.8 165 321.4 164.2 322 163.4 323.2 163.3 324 163.9 324.3 164.1 330.8 168.9 337.3 163.9 338.1 163.3 339.3 163.4 339.9 164.2 340.5 165 340.4 166.1 339.6 166.7 336.7 168.9 333.7 169.7 330.9 169.7"/>
    <path fill="#F8ECDC" d="M301.8,156.1 C301.8,161.5 297.3,165.9 291.8,165.9 C286.3,165.9 281.8,161.5 281.8,156.1 C281.8,150.7 286.3,146.3 291.8,146.3 C297.3,146.3 301.8,150.7 301.8,156.1"/>
    <path fill="#FED58C" d="M325.9,212.5 C336.8,220.1 348.5,226.8 361.5,230.5 C376.3,234.6 391.9,234.6 407.1,233 C413.6,232.3 413.7,222.3 407.1,223 C392.8,224.5 378.2,224.7 364.2,220.9 C352,217.5 341.2,211.1 331,203.9 C325.7,200.1 320.5,208.8 325.9,212.5"/>
    <path fill="#73B5EC" d="M189.1,198.5 C210.2,212.1 235.8,216.5 260.8,215 C268.9,214.5 268.9,202.2 260.8,202.7 C237.9,204.1 214.9,200.3 195.5,187.9 C188.7,183.5 182.3,194.2 189.1,198.5"/>
    <path fill="#73B5EC" d="M208.4,84.2 C208.4,64.8 196.6,63.4 194.9,46.5 L127.7,46.5 C126,63.4 114.2,64.8 114.2,84.2 C114.2,105.1 127.9,105.1 127.9,126 C127.9,146.9 114.2,146.9 114.2,167.8 L114.2,170.3 C114.2,195.7 135.3,216.3 161.3,216.3 C187.3,216.3 208.4,195.7 208.4,170.3 L208.4,167.8 C208.4,146.9 194.7,146.9 194.7,126 C194.7,105.1 208.4,105.1 208.4,84.2"/>
    <path fill="#4592D1" d="M161.3,216.3 L161.3,216.3 C135.3,216.3 114.2,195.7 114.2,170.3 L114.2,167.8 L208.4,167.8 L208.4,170.3 C208.4,195.7 187.3,216.3 161.3,216.3"/>
    <path fill="#F6C471" d="M127.7,46.5 C127.7,46.5 111.8,36.2 119.9,24 C130,8.9 149.4,23 149.4,23 C149.4,23 153.1,-4.6 179.2,1.7 C201.6,7.2 193.3,29.7 193.3,29.7 C193.3,29.7 202,28 204.3,35.2 C207.3,44.6 194.9,46.5 194.9,46.5 L127.7,46.5 Z"/>
    <path fill="#F3F1EC" d="M168.4,73.9 C168.4,79.9 163.4,84.7 157.3,84.7 C151.1,84.7 146.2,79.9 146.2,73.9 C146.2,67.9 151.2,63.1 157.3,63.1 C163.4,63.1 168.4,67.9 168.4,73.9"/>
    <path fill="#4B5161" d="M159.3,67.7 C155.8,67.7 152.9,70.5 152.9,73.9 C152.9,77.3 155.8,80.1 159.3,80.1 C162.8,80.1 165.7,77.3 165.7,73.9 C165.7,70.5 162.9,67.7 159.3,67.7"/>
    <path fill="#F3F1EC" d="M189.4,73.9 C189.4,79.9 184.4,84.7 178.3,84.7 C172.1,84.7 167.2,79.9 167.2,73.9 C167.2,67.9 172.2,63.1 178.3,63.1 C184.4,63.1 189.4,67.9 189.4,73.9"/>
    <path fill="#4B5161" d="M180.4,67.7 C176.9,67.7 174,70.5 174,73.9 C174,77.3 176.9,80.1 180.4,80.1 C183.9,80.1 186.8,77.3 186.8,73.9 C186.8,70.5 183.9,67.7 180.4,67.7"/>
    <path fill="#4592D1" d="M168.9 109.7C140.7 109.7 129.5 90.5 129.1 89.6L145.4 80.9 145.3 80.8C145.6 81.2 152 91.6 168.9 91.6 185 91.6 188.9 82.4 188.9 82.3 190.6 77.6 196 75.1 200.8 76.8 205.6 78.5 208.2 83.7 206.4 88.4 206.1 89.2 198.3 109.7 168.9 109.7M177.4 397.3L165.1 392C190.7 335.4 188 289.1 181.3 260.3 174 229 160.4 210.9 160.3 210.7L171.1 202.9C171.7 203.7 186.2 223 194.3 256.7 201.6 287.6 204.6 337.1 177.4 397.3"/>
    <path fill="#73B5EC" d="M191.7 399.8L168.9 399.9C167.2 399.9 165.8 398.5 165.8 396.8L165.8 389.7 191.7 389.6C194.5 389.6 196.8 391.9 196.8 394.7 196.8 397.4 194.5 399.7 191.7 399.8M163.2 201.4C190.8 228.4 231.2 231.7 268.2 229.7 275.1 229.3 277 219.5 269.9 217.6 269.2 217.4 268.9 217.5 268.2 217.4 234.7 219.2 197.3 217.3 172.2 192.7 166.4 187 157.5 195.7 163.2 201.4"/>
    <path fill="#F6C471" d="M104.3,0.2 L22.5,2.7 C18.6,2.7 14.9,5.1 12.8,9 L0.3,26.7 L121.1,14 L113.7,6.1 C111.6,2.3 108.1,0.2 104.3,0.2 Z" transform="translate(243 114)"/>
    <circle cx="137.2" cy="85.1" r="9.3" fill="#4592D1"/>
    <path fill="#4B5161" d="M168.9,102 C145.3,102 136.3,86.6 136,85.9 C135.6,85.2 135.9,84.3 136.6,84 C137.3,83.6 138.2,83.9 138.6,84.6 C139,85.2 147.2,99.2 169,99.2 C190.7,99.2 196.2,85.4 196.4,84.8 C196.7,84.1 197.5,83.7 198.3,83.9 C199.1,84.2 199.4,85 199.2,85.7 C198.8,86.4 192.8,102 168.9,102"/>
    <path fill="#5A6175" fill-opacity=".1" d="M559.4,430.879659 L71.7,430.879659 C64.5,430.879659 58.6,436.779659 58.6,443.979659 C58.6,451.179659 64.5,457.079659 71.7,457.079659 L559.4,457.079659 C566.6,457.079659 572.5,451.179659 572.5,443.979659 C572.5,436.779659 566.6,430.879659 559.4,430.879659"/>
  </g>
</svg>
