<svg xmlns="http://www.w3.org/2000/svg" width="234" height="314" viewBox="0 0 234 314">
  <g fill="none" fill-rule="evenodd">
    <path fill="#5A6175" fill-rule="nonzero" d="M51.1,275 C40.6,275 32,283.5 32,294.1 C32,304.6 40.5,313.2 51.1,313.2 L220.1,313.2 C220.1,313.2 233.271484,310.131641 233.271484,294.1 C233.271484,278.068359 220.1,275 220.1,275 L51.1,275 Z" opacity=".1"/>
    <polygon fill="#FACA78" fill-rule="nonzero" points="130.4 271.4 145 271.4 145 164.8 130.4 164.8"/>
    <polygon fill="#FFDEA6" fill-rule="nonzero" points="130.4 293.2 145 293.2 145 246.6 130.4 246.6"/>
    <path fill="#FFDEA6" fill-rule="nonzero" d="M152.5,293.4 L131.6,293.4 C131.3,293.4 131.1,293.2 131.1,292.9 L131.1,286.5 L152.4,286.5 C154.3,286.5 155.8,288 155.8,289.9 C156,291.9 154.4,293.4 152.5,293.4"/>
    <polygon fill="#FACA78" fill-rule="nonzero" points="26.6 173.5 133.3 173.5 133.3 158.9 26.6 158.9"/>
    <polygon fill="#FFDEA6" fill-rule="nonzero" points="4.9 173.5 51.5 173.5 51.5 158.9 4.9 158.9"/>
    <path fill="#FFDEA6" fill-rule="nonzero" d="M0.8,152.5 L0.8,173.4 C0.8,173.7 1,173.9 1.3,173.9 L7.7,173.9 L7.7,152.6 C7.7,150.7 6.2,149.2 4.3,149.2 C2.3,149.1 0.8,150.6 0.8,152.5"/>
    <path fill="#FACA78" fill-rule="nonzero" d="M102.2,153.4 C84.2,153.4 67,146.9 53.4,134.9 C38.6,121.8 29.7,103.8 28.5,84 C27.2,64.3 33.8,45.2 46.8,30.4 C59.9,15.6 77.9,6.7 97.7,5.5 C100.6,5.3 103.1,7.5 103.3,10.5 C103.5,13.5 101.3,15.9 98.3,16.1 C81.4,17.2 65.9,24.8 54.7,37.5 C43.5,50.2 37.9,66.5 39,83.4 C40.1,100.3 47.7,115.8 60.4,127 C73.1,138.2 89.4,143.8 106.3,142.7 C109.2,142.5 111.7,144.7 111.9,147.7 C112.1,150.6 109.9,153.1 106.9,153.3 C105.4,153.3 103.8,153.4 102.2,153.4"/>
    <path fill="#FACA78" fill-rule="nonzero" d="M174.061288,134.5 C159.261288,121.4 150.361288,103.4 149.161288,83.6 C147.861288,63.9 154.461288,44.8 167.461288,30 C180.561288,15.2 198.561288,6.3 218.361288,5.1 C221.261288,4.9 223.761288,7.1 223.961288,10.1 C224.161288,13.1 221.961288,15.5 218.961288,15.7 C202.061288,16.8 186.561288,24.4 175.361288,37.1 C164.161288,49.8 158.561288,66.1 159.661288,83 C160.761288,99.9 168.361288,115.4 181.061288,126.6 C193.761288,137.8 210.061288,143.4 226.961288,142.3 C229.861288,142.1 232.361288,144.3 232.561288,147.3 C232.761288,150.2 230.561288,152.7 227.561288,152.9 C226.061288,152.9 224.461288,153 222.861288,153 C204.861288,153 187.661288,146.5 174.061288,134.5 Z" transform="matrix(-1 0 0 1 381.574 0)"/>
    <path fill="#F6914E" fill-rule="nonzero" d="M112,129.5 C107.5,129.5 103.9,133.1 103.9,137.6 L103.9,157.6 C103.9,158.5 103.9,160.8 104,163.4 C104.1,170.2 109.6,175.6 116.4,175.6 L146.3,175.6 C153.6,175.6 159.5,169.7 159.6,162.4 L159.6,159 L159.6,137.5 C159.6,133 156,129.4 151.5,129.4 L112,129.4 L112,129.5 Z"/>
    <path fill="#FACA78" fill-rule="nonzero" d="M183.4,116.2 L183.4,81.2 L79.7,81.2 L79.7,116.2 C79.7,125.7 87.4,133.4 96.9,133.4 L166.2,133.4 C175.7,133.4 183.4,125.7 183.4,116.2"/>
    <path fill="#93A2ED" fill-rule="nonzero" d="M183.4,81.6 L183.4,65.4 C183.4,59 181,52.8 176.7,48.1 L175.5,46.8 C170.7,41.5 163.8,38.5 156.7,38.5 L105.3,38.5 C98.9,38.5 92.7,40.9 88,45.3 C82.8,50.1 79.8,56.9 79.8,64.1 L79.8,81.6 L183.4,81.6 Z"/>
    <path fill="#F6914E" fill-rule="nonzero" d="M183.9,82 L183.9,65.8 C183.9,59.4 181.5,53.2 177.2,48.5 L176,47.2 C171.2,41.9 164.3,38.9 157.2,38.9 L105.8,38.9 C99.4,38.9 93.2,41.3 88.5,45.7 C83.3,50.5 80.3,57.3 80.3,64.5 L80.3,82 L183.9,82 Z"/>
    <path fill="#F6914E" fill-rule="nonzero" d="M183.9,70.9 L183.9,54.7 C183.9,48.3 181.5,42.1 177.2,37.4 L176,36.1 C171.2,30.8 164.3,27.8 157.2,27.8 L105.8,27.8 C99.4,27.8 93.2,30.2 88.5,34.6 C83.3,39.4 80.3,46.2 80.3,53.4 L80.3,70.9 L183.9,70.9 Z"/>
    <path stroke="#514241" stroke-linecap="round" stroke-width="3.237" d="M126.7 117.5C127.5 118 129.5 118.3 131.8 118.3 134.1 118.3 136.1 118 136.9 117.5M99.1 99.5C100.1 103.7 103.9 106.9 108.4 106.9 112.9 106.9 116.7 103.7 117.7 99.5M144.4 99.5C145.4 103.7 149.2 106.9 153.7 106.9 158.2 106.9 162 103.7 163 99.5"/>
    <g fill-rule="nonzero" transform="translate(54 5)">
      <path fill="#FACA78" d="M147.4 122C134.7 133.2 118.4 138.8 101.5 137.7 98.6 137.5 96.1 139.7 95.9 142.7 95.7 145.6 97.9 148.1 100.9 148.3 102.5 148.4 104.1 148.5 105.7 148.5 122.7 148.5 138.9 142.7 152.1 132L152.1 117.5C150.5 119 149 120.5 147.4 122zM104.5 5.5C104.3 8.4 106.5 10.9 109.5 11.1 125.9 12.1 140.9 19.3 152 31.3L152 16.8C140.2 7.2 125.7 1.5 110.2.5 107.2.3 104.7 2.6 104.5 5.5z"/>
      <path fill="#4592D1" d="M116.1,50 C105.6,50 96.1,54.3 89.2,61.2 C86.7,56.5 81.8,53.4 76.3,53.4 C71.2,53.4 66.7,56 64.1,60 C57.3,53.7 48.3,49.9 38.4,49.9 C17.5,49.9 0.5,66.9 0.5,87.8 C0.5,108.7 17.5,125.7 38.4,125.7 C59.3,125.7 76.3,108.7 76.3,87.8 C76.3,79.4 73.5,71.6 68.9,65.3 C70,62.2 73,60 76.4,60 C80.1,60 83.3,62.5 84.1,66.1 C84.2,66.4 84.3,66.7 84.5,67 C80.6,73 78.3,80.1 78.3,87.7 C78.3,108.6 95.3,125.6 116.2,125.6 C132.9,125.6 147.1,114.8 152.1,99.8 L152.1,75.6 C146.9,60.8 132.8,50 116.1,50 Z M69.6,87.9 C69.6,105.1 55.6,119.2 38.3,119.2 C21.1,119.2 7,105.2 7,87.9 C7,70.6 21,56.6 38.3,56.6 C55.6,56.6 69.6,70.7 69.6,87.9 Z M116.1,119.2 C98.9,119.2 84.8,105.2 84.8,87.9 C84.8,70.6 98.8,56.6 116.1,56.6 C133.3,56.6 147.4,70.6 147.4,87.9 C147.4,105.2 133.3,119.2 116.1,119.2 Z"/>
    </g>
    <path fill="#F6914E" fill-rule="nonzero" d="M152.7,21.6 C152.7,33 143.4,42.3 132,42.3 C120.6,42.3 111.3,33 111.3,21.6 C111.3,10.2 120.6,0.9 132,0.9 C143.5,0.9 152.7,10.2 152.7,21.6"/>
  </g>
</svg>
